//.vmt file generated by MAYA. Remove this line if you edit this file! -- theo 
"UnLitGeneric"
{

	"$color"				"[1 1 1]"
	"$baseTexture"				"models/props_foliage/tree_card_clump"
	"$selfIllum"				0
	"$translucent"				1
	"$alpha"				1
	"$nocull"				1
	"$model"				1
	"ldr?$gammaColorRead" "1"
	"ldr?$linearWrite" "1"
}
