"Water"
{
//for d2_coast_01
	"Water_DX60"
	{
		"$fallbackmaterial" "nature/water_dx70_opaq"
	}
	"Water_DX80"
	{
		"$fallbackmaterial" "nature/water_wasteland002b_dx8"
	}
	"Water_DX81"
	{
		"$fallbackmaterial" "nature/water_wasteland002b_dx8"
	}
	"$abovewater" 1
	"%compilewater" 1
	"$forceexpensive" 1
	"$reflectentities" 0
	"$envmap" "env_cubemap"
	//"$envmapcontrast" "1"
	//"$envmaptint"[1 1 1]"	
	"%tooltexture" "nature/water_frame01_normal"
	"$refracttexture" "_rt_WaterRefraction"
	"$refractamount" "5"


	"$reflecttexture" "_rt_WaterReflection"
	"$reflectamount" "1"

	"$scale" "[1 1]"

	"$bumpmap" "nature/water_coast01_dudv"
	"$normalmap" "nature/water_coast01_normal"

	"$surfaceprop" "water"
	"$bottommaterial" "nature/water_coast01_beneath"
	"$bumpframe" "0"

	"$fogenable" 1
	"$fogcolor" "{7 16 18}"
	"srgb?$fogcolor" "{21 48 52}"
//	"$fogcolor" "{15 32 36}"
//	"$fogcolor" "{22 47 53}"
	"$fogstart" 100.00
	"$fogend" 500.00

	"$scroll1" "[.01 .01 .05]"
	"$scroll2" "[-.025 .025 .075]"

	"Proxies"
	{
		"TextureScroll"
		{
			"texturescrollvar" "$bumptransform"
			"texturescrollrate" .02
			"texturescrollangle" 25.00
		}
		"WaterLOD"
		{
		}
			
	}

}
