"vertexlitGeneric"
{
	// Original shader: BaseTexture
	"$basetexture" "models/props_c17/hospital_bed01_skin2"
	"$surfaceprop" "metal"
	"$basealphaenvmapmask" 1
	"$envmap" "env_cubemap"
	"$envmaptint" "[ .30 .30 .30 ]"
  	"hdr?$envmaptint" "[.15 .15 .15]"
}
