"VertexLitGeneric"
{
	"$basetexture" 						"Models/Buggy_elite/alternator"
	//"$bumpmap" 						"Models/Buggy/buggy001_normal"
	"$surfaceprop" 						"metal"
	"$envmap" 							"env_cubemap"
	"$envmaptint" 						"[ .3 .3 .3 ]"
	"$envmapcontrast" "1.3"

	"$nocull" 							"1"

}