"VertexLitGeneric"
{
	"$basetexture" 						"Models/Buggy_elite/Trap_Propeller001b"
	"$bumpmap" 							"Models/Buggy_elite/Trap_Propeller001b_bump"
	"$surfaceprop" 						"metal"
	
	"$envmap" 							"env_cubemap"
	"$envmaptint" 						"[ .3 .3 .3 ]"
	"$normalmapalphaenvmapmask"			"1"
	"$envmapcontrast" "1.3"

	"$nocull" 							"1"

}