"VertexLitGeneric"
{
	"$basetexture"	"Models/vehicles/junker/jalopyTempColor"
	"$bumpmap" "Models/vehicles/junker/jalopyTemp_Normal"
	"$surfaceprop"	"Wood_lowdensity"
	//"$basealphaenvmapmask" 1
	"$phong" "1"
	"$phongboost" "5"
	"$halflambert" "1"
	"$phongexponent" "15"
	//"$phongexponenttexture" "Models/vehicles/junker/jalopyTempPhong"
	//"$phongalbedotint" "1"										
	"$phongfresnelranges"	"[.1 .5 1.0]"
}