"VertexLitGeneric"
{
	"$basetexture" "Models/Combine_Helicopter/combine_helicopter01"
	"$surfaceprop" "metal"
	//"$selfillum" 1
	"$phong" "1"
	"$phongboost" "5"
	"$phongexponenttexture" "models/Combine_Helicopter/combine_helicopter_phong"
	"$phongalbedotint" "1"										
	"$phongfresnelranges"	"[.1 .6 1.0]"
	"$envmap" "env_cubemap"
	"$envmaptint" "[ .05 .05 .05 ]"
	"$envmapfresnel" "1"
	"$nofog" 1

	">=DX90_20b"
	{
		"$bumpmap" "models/Combine_Helicopter/combine_helicopter01_normal"
	}
	
	"<DX90_20b"
	{
		"$bumpmap" "models/Combine_Helicopter/combine_helicopter01_normal_old"
		"$normalmapalphaenvmapmask" 1
		"$envmapcontrast" 1
		"$envmapsaturation" 1
		"$envmaptint" "[ .56 .67 .75 ]"
	}

	"<DX90"
	{
		"$envmaptint" "[ .1 .1 .1]"
		"$basealphaenvmapmask" 1
		"$envmap" "Environment Maps/envmapcombine"
		"$envmapsphere" 1
	}
}