"LightmappedGeneric"
{
	"$basetexture" "Concrete/concretefloor015a"
	"$surfaceprop" "concrete"

	"%keywords" "c17downtown"
	 
	"LightmappedGeneric_DX9"
	{
	    "$detail" "detail\noise_detail_01"
		"$detailscale" "7.345"
		"$detailblendfactor" .6
		"$detailblendmode" 0
		"$bumpmap" "concrete\concretefloor015a_normal"
	}
}
