"LightmappedGeneric"
{
	"$basetexture" "concrete/concretewall013f"
	"$surfaceprop" "concrete"
	
	"LightmappedGeneric_DX9"
	{
		"$detail" "detail\noise_detail_01"
		"$detailscale" "7.345"
		"$detailblendfactor" .2
		"$detailblendmode" 0
	}
}