"VertexLitGeneric"
{
	"$basetexture" "Models/Buggy/buggy002"
        "$bumpmap" "models/Buggy/buggy002_n"
	//"$surfaceprop" "metal"
	//"$envmap" "env_cubemap"
	//"$basealphaenvmapmask" 1
	"$phong" "1"
	"$phongexponent" "20"
	"$phongboost"	"4"
	"$phongfresnelranges"	"[.3 1 4]"
	"$detail" "detail\metal_detail_01"
	"$detailscale" "9.283"
	"$detailblendfactor" ".75"
	"$detailblendmode" "0"
}