"LightmappedGeneric"
{
	// Original shader: BaseTimesLightmapPlusMaskedSphericalEnvMap
	"$basetexture" "halflife/fifties_cmp3c"
	"$surfaceprop" "metal"

	"LightmappedGeneric_DX8"
	{
		"$envmap" "environment maps/envmap001a"
		"$envmapmask" "halflife/fifties_cmp3cr"
		"$envmapsphere" 1
	}
}
