// envmaptint_fix 
"LightmappedGeneric" 
{ 
	"$basetexture" "Metal/metalwall078a"
 	"$surfaceprop" "metal" 
	"%keywords" "combine"
  	// NOTE: Even though env_cubemap is here, it will turned off for DX6
 	// because $multipass 1 isn't defined 
	"$envmap" "env_cubemap"
 	"$envmaptint" "[ .56 .56 .75 ]"
	"hdr?$envmaptint" "[.09 .1 .12]"
 	"$envmapcontrast" 1 
	"$envmapsaturation" 1  

	"LightmappedGeneric_DX9"
 	{ 
		"$bumpmap" "metal/metalwall078a_normal" 
		"$nodiffusebumplighting" 1 
		"$normalmapalphaenvmapmask" 1
 	}  

	"LightmappedGeneric_DX8"
 	{ 
		"$bumpmap" "metal/metalwall078a_normal"
 		"$nodiffusebumplighting" 1 
		"$normalmapalphaenvmapmask" 1 
	}  

	"LightmappedGeneric_NoBump_DX8" 
	{ 
		"$basetexture" "metal/citadel_metalwall078a" 
		"$basealphaenvmapmask" 1
 	}  
 }