"LightmappedGeneric"
{
	"$basetexture" "Metal/citadel_metaldoor_core01"
	"$surfaceprop" "metal"
	"%keywords" "combine"
	"$envmap" "env_cubemap"
	"$envmaptint" "[ .56 .67 .75 ]"
	"hdr?$envmaptint" "[.09 .1 .12]" 
	"$envmapcontrast" 1
	"$envmapsaturation" 1

  	"LightmappedGeneric_DX9"
	{ 
		"$bumpmap" "metal/metalwall077a_normal"
		"$normalmapalphaenvmapmask" 1
	} 

	"LightmappedGeneric_DX8"
	{ 
		"$bumpmap" "metal/metalwall077a_normal" 
		"$nodiffusebumplighting" 1 
		"$normalmapalphaenvmapmask" 1 
	}  
} 