"LightmappedGeneric"
{
	"$baseTexture" "metal/forest_metal01g"
	"$surfaceprop"	"metal"
	">=DX90"
	{
	"$detail" "detail\metal_detail_01"
	"$detailscale" "4.283"
	"$detailblendfactor" .8
	"$detailblendmode" "0"
	}
	"%keywords" 	"ep2"
}
