// envmaptint_fix
"LightmappedGeneric"
{
	"$basetexture" "Metal/metalwall101a"
	"$surfaceprop"  "metal"
	"LightmappedGeneric_DX9"
	{
		"$detail" "detail\metal_detail_01"
		"$detailscale" "4.283"
		"$detailblendfactor" .8
		"$detailblendmode" "0"
	}

	"%keywords" "borealis"
	"$bumpmap" "Metal/metalwall101a_normal"
	"$envmaptint" "[ .42 .53 .64 ]"
	"hdr?$envmaptint" "[ .09 .1 .12]"
	"$normalmapalphaenvmapmask" 1
	"$envmap" "env_cubemap"
	"$parallaxmap" "Metal/metalwall101a_height"
	"$parallaxmapscale" ".04"
}