"LightmappedGeneric"
{
	// Original shader: BaseTimesLightmapAlphaBlend
	"$alphatest" 1
	"$allowalphatocoverage" 1
	"$basetexture" "Metal/metalfireescape002a"
	"$surfaceprop" "metal"
	"%keywords" "c17downtown"
	"$nodecal" 1
}
