"LightmappedGeneric"
{
	// Original shader: BaseTimesLightmapAlphaBlend
	"$alphatest" 1
	"$allowalphatocoverage" 1
	"$basetexture" "Metal/metalgate005a"
	"%compilepassbullets" 1
	"$surfaceprop" "metal"
	"%keywords" "c17downtown,c17industrial,wasteland"
}
