"LightmappedGeneric"
{
	// Original shader: BaseTimesLightmap
	"$basetexture" "Metal/metalhull011f"
	"$surfaceprop"  "metal"
	"LightmappedGeneric_DX9"
	{
		"$detail" "detail\metal_detail_01"
		"$detailscale" "4.283"
		"$detailblendfactor" .65
		"$detailblendmode" "0"
	}

	"%keywords" "borealis"
}
