"sky"
{
	// Original shader: BaseTexture
	"$basetexture" "skybox/sky_day01_09bk"
	"$hdrbasetexture" "skybox/sky_day01_09bk"
	"$nofog" 1
	$ignorez 1
	"$basetexturetransform" "center 0 0 scale 1 2 rotate 0 translate 0 0"
}
