"LightmappedGeneric"
{
	// Original shader: BaseTimesLightmap
	"$basetexture" "Wood/wooddoor019a"
	"$surfaceprop" "wood"
	"%keywords" "wasteland"

	"LightmappedGeneric_DX9"
	{
	"$detail" "detail\plaster_detail_01"
	"$detailscale" "4.545"
	"$detailblendfactor" .8
	"$detailblendmode" 0
	}
}
