"UnlitGeneric"
{
	// Original shader: VertexLitTexture
	"$basetexture" "models/brokenglass/glassbroken_02d"
	"$translucent" 1
	"$nocull" 1
	"$vertexcolor" 1
	"$vertexalpha" 1
	"ldr?$gammaColorRead" "1"
	"ldr?$linearWrite" "1"
}