WeaponData
{
	// Weapon data is loaded by both the Game and Client DLLs.
	"printname"	"#SMOD_Harpoon"
	"viewmodel"			"models/lostcoast/fisherman/harpoon.mdl"
	"playermodel"			"models/lostcoast/fisherman/harpoon.mdl"
	"anim_prefix"			"smg2"
	"bucket"				"disabled" //"melee" //TODO: Change to melee when this si actually working as a weapon
	"bucket_position"		"2"

	"clip_size"				"-1"
	"clip2_size"			"-1"

	"default_clip"			"-1"
	"default_clip2"			"-1"

	"primary_ammo"			"None"
	"secondary_ammo"		"None"

	"item_flags"			"0"

	// Sounds for the weapon. There is a max of 16 sounds per category (i.e. max 16 "single_shot" sounds)
	SoundData
	{
	}

	// Weapon Sprite data is loaded by the Client DLL.
	TextureData
	{
		"weapon"
		{
				"file"		"sprites/w_icons1"
				"x"			"128"
				"y"			"128"
				"width"		"128"
				"height"	"64"
		}
		"weapon_s"
		{
				"file"		"sprites/w_icons1b"
				"x"			"128"
				"y"			"128"
				"width"		"128"
				"height"	"64"
		}
		"ammo"
		{
				"file"		"sprites/a_icons1"
				"x"			"55"
				"y"			"60"
				"width"		"73"
				"height"	"15"
		}
		"crosshair"
		{
				"file"		"sprites/crosshairs"
				"x"			"0"
				"y"			"48"
				"width"		"24"
				"height"	"24"
		}
		"autoaim"
		{
				"file"		"sprites/crosshairs"
				"x"			"0"
				"y"			"48"
				"width"		"24"
				"height"	"24"
		}
	}
}