// envmaptint_fix
"VertexLitGeneric"
{
	"$surfaceprop"	"alienflesh"
	"$model" "1"

	"$baseTexture" "Models/Antlion/Antlionhigh_sheet4"
	"$bumpmap" "Models/Antlion/Antlionhigh_normal"
	
	// phong
	"$phong" "1"
	"$phongboost" "1"
	"$phongexponent" "15"

	"$phongfresnelranges"	"[.1 .8 1.2]"
	
	// environment map
	"$normalmapalphaenvmapmask" 1
	"$envmap" "env_cubemap"
	"$envmaptint" "[.05 .05 .05]"
	"$envmapfresnel" "1"


	//rimlight parameters
	"$rimlight" "1"
	"$rimlightexponent" "15"
	"$rimlightboost" "1"
	
	"<DX90_20b"
	{
		"$bumpmap" "Models/Antlion/Antlionhigh_normal_old"
		"$envmaptint" "[ .36 .36 .30 ]"
		"$envmapconstrast" "1"
	}
}
