"UnlitGeneric"
{
	// Original shader: BaseTimesVertexColorAlphaBlend
	"$basetexture" "effects/splash2"
	"$vertexcolor" "1"
	"$vertexalpha" "1"
	"$translucent" "1"
	"ldr?$gammaColorRead" "1"
	"ldr?$linearWrite" "1"
}
