"VertexLitGeneric"
{
	"$baseTexture" "Models/Combine_Strider/striderdecalsheet"
	"$selfillum" 1
	"$bumpmap" "Models/Combine_Strider/striderNormal"
	//"$halflambert" 1
	// -- From here down is new stuff which will only be applied if $phong is set to 1 --
 
 	"$phong"     "1"
 	"$phongboost"   "5"

	//"$phongexponent"   "20"
 	"$phongexponenttexture" "Models/Combine_Strider/striderPhong"
 	"$phongfresnelranges"   "[.1 .5 1]"
 	"$phongalbedotint" 1

	"<DX90_20b"
	{
	"$bumpmap" "Models/Combine_Strider/striderdecalsheet_normal"
	"$normalmapalphaenvmapmask" 1
	"$envmap" "env_cubemap"
	//"$envmaptint" "[0.4 0.4 0.4]"
	"$envmapcontrast" 1
	}

	"<DX90"
	{
		"dummy" 0
	}
}
