"Resource/OptionsSubMultiplayer.res"
{
	"OptionsSubMultiplayer"
	{
		"ControlName"		"COptionsSubMultiplayer"
		"fieldName"		"OptionsSubMultiplayer"
		"xpos"		"0"
		"ypos"		"28"
		"wide"		"496"
		"tall"		"314"
		"autoResize"		"0"
		"pinCorner"		"0"
		"RoundedCorners"		"15"
		"pin_corner_to_sibling"		"0"
		"pin_to_sibling_corner"		"0"
		"visible"		"1"
		"enabled"		"1"
		"tabPosition"		"0"
	}
	"Cancel"
	{
		"ControlName"		"Button"
		"fieldName"		"Cancel"
		"xpos"		"378"
		"ypos"		"322"
		"wide"		"64"
		"tall"		"24"
		"autoResize"		"0"
		"pinCorner"		"3"
		"RoundedCorners"		"15"
		"pin_corner_to_sibling"		"0"
		"pin_to_sibling_corner"		"0"
		"visible"		"1"
		"enabled"		"1"
		"tabPosition"		"0"
		"labelText"		"#GameUI_Cancel"
		"textAlignment"		"west"
		"dulltext"		"0"
		"brighttext"		"0"
		"wrap"		"0"
		"centerwrap"		"0"
		"textinsetx"		"6"
		"textinsety"		"0"
		"auto_wide_tocontents"		"0"
		"use_proportional_insets"		"0"
		"command"		"Close"
		"Default"		"0"
	}
	"ok"
	{
		"ControlName"		"Button"
		"fieldName"		"OK"
		"xpos"		"308"
		"ypos"		"322"
		"wide"		"64"
		"tall"		"24"
		"autoResize"		"0"
		"pinCorner"		"3"
		"RoundedCorners"		"15"
		"pin_corner_to_sibling"		"0"
		"pin_to_sibling_corner"		"0"
		"visible"		"1"
		"enabled"		"1"
		"tabPosition"		"0"
		"labelText"		"#GameUI_OK"
		"textAlignment"		"west"
		"dulltext"		"0"
		"brighttext"		"0"
		"wrap"		"0"
		"centerwrap"		"0"
		"textinsetx"		"6"
		"textinsety"		"0"
		"auto_wide_tocontents"		"0"
		"use_proportional_insets"		"0"
		"command"		"Ok"
		"Default"		"0"
	}
	"Apply"
	{
		"ControlName"		"Button"
		"fieldName"		"Apply"
		"xpos"		"448"
		"ypos"		"322"
		"wide"		"64"
		"tall"		"24"
		"autoResize"		"0"
		"pinCorner"		"3"
		"RoundedCorners"		"15"
		"pin_corner_to_sibling"		"0"
		"pin_to_sibling_corner"		"0"
		"visible"		"1"
		"enabled"		"1"
		"tabPosition"		"0"
		"labelText"		"#GameUI_Apply"
		"textAlignment"		"west"
		"dulltext"		"0"
		"brighttext"		"0"
		"wrap"		"0"
		"centerwrap"		"0"
		"textinsetx"		"6"
		"textinsety"		"0"
		"auto_wide_tocontents"		"0"
		"use_proportional_insets"		"0"
		"command"		"Apply"
		"Default"		"0"
	}
	"Advanced"
	{
		"ControlName"		"Button"
		"fieldName"		"Advanced"
		"xpos"		"10"
		"ypos"		"270"
		"wide"		"120"
		"tall"		"24"
		"autoResize"		"0"
		"pinCorner"		"0"
		"RoundedCorners"		"15"
		"pin_corner_to_sibling"		"0"
		"pin_to_sibling_corner"		"0"
		"visible"		"1"
		"enabled"		"1"
		"tabPosition"		"9"
		"labelText"		"#GameUI_AdvancedEllipsis"
		"textAlignment"		"west"
		"dulltext"		"0"
		"brighttext"		"0"
		"wrap"		"0"
		"centerwrap"		"0"
		"textinsetx"		"6"
		"textinsety"		"0"
		"auto_wide_tocontents"		"0"
		"use_proportional_insets"		"0"
		"command"		"Advanced"
		"Default"		"0"
	}
	"ImportSprayImage"
	{
		"ControlName"		"Button"
		"fieldName"		"ImportSprayImage"
		"xpos"		"100"
		"ypos"		"93"
		"wide"		"124"
		"tall"		"24"
		"autoResize"		"0"
		"pinCorner"		"0"
		"RoundedCorners"		"15"
		"pin_corner_to_sibling"		"0"
		"pin_to_sibling_corner"		"0"
		"visible"		"1"
		"enabled"		"1"
		"tabPosition"		"0"
		"labelText"		"#GameUI_ImportSprayEllipsis"
		"textAlignment"		"west"
		"dulltext"		"0"
		"brighttext"		"0"
		"wrap"		"0"
		"centerwrap"		"0"
		"textinsetx"		"6"
		"textinsety"		"0"
		"auto_wide_tocontents"		"0"
		"use_proportional_insets"		"0"
		"command"		"ImportSprayImage"
		"Default"		"0"
	}
	"Primary Color Slider"
	{
		"ControlName"		"CCvarSlider"
		"fieldName"		"Primary Color Slider"
		"xpos"		"20"
		"ypos"		"188"
		"wide"		"140"
		"tall"		"39"
		"autoResize"		"0"
		"pinCorner"		"0"
		"RoundedCorners"		"15"
		"pin_corner_to_sibling"		"0"
		"pin_to_sibling_corner"		"0"
		"visible"		"0"
		"enabled"		"1"
		"tabPosition"		"3"
		"leftText"		" "
		"rightText"		" "
	}
	"Secondary Color Slider"
	{
		"ControlName"		"CCvarSlider"
		"fieldName"		"Secondary Color Slider"
		"xpos"		"20"
		"ypos"		"223"
		"wide"		"140"
		"tall"		"42"
		"autoResize"		"0"
		"pinCorner"		"0"
		"RoundedCorners"		"15"
		"pin_corner_to_sibling"		"0"
		"pin_to_sibling_corner"		"0"
		"visible"		"0"
		"enabled"		"1"
		"tabPosition"		"4"
		"leftText"		" "
		"rightText"		" "
	}
	"High Quality Models"
	{
		"ControlName"		"CCvarToggleCheckButton"
		"fieldName"		"High Quality Models"
		"xpos"		"0"
		"ypos"		"0"
		"wide"		"64"
		"tall"		"24"
		"autoResize"		"0"
		"pinCorner"		"0"
		"RoundedCorners"		"15"
		"pin_corner_to_sibling"		"0"
		"pin_to_sibling_corner"		"0"
		"visible"		"0"
		"enabled"		"1"
		"tabPosition"		"0"
		"labelText"		"#GameUI_HighModels"
		"textAlignment"		"west"
		"dulltext"		"0"
		"brighttext"		"0"
		"wrap"		"0"
		"centerwrap"		"0"
		"textinsetx"		"6"
		"textinsety"		"0"
		"auto_wide_tocontents"		"0"
		"use_proportional_insets"		"0"
		"Default"		"0"
	}
	"Player model"
	{
		"ControlName"		"CLabeledCommandComboBox"
		"fieldName"		"Player model"
		"xpos"		"277"
		"ypos"		"266"
		"zpos"		"2"
		"wide"		"190"
		"tall"		"24"
		"autoResize"		"0"
		"pinCorner"		"0"
		"RoundedCorners"		"15"
		"pin_corner_to_sibling"		"0"
		"pin_to_sibling_corner"		"0"
		"visible"		"0"
		"enabled"		"1"
		"tabPosition"		"2"
		"textHidden"		"0"
		"editable"		"0"
		"maxchars"		"-1"
		"NumericInputOnly"		"0"
		"unicode"		"0"
	}
	"SpraypaintList"
	{
		"ControlName"		"CLabeledCommandComboBox"
		"fieldName"		"SpraypaintList"
		"xpos"		"100"
		"ypos"		"61"
		"wide"		"124"
		"tall"		"24"
		"autoResize"		"0"
		"pinCorner"		"0"
		"RoundedCorners"		"15"
		"pin_corner_to_sibling"		"0"
		"pin_to_sibling_corner"		"0"
		"visible"		"1"
		"enabled"		"1"
		"tabPosition"		"2"
		"textHidden"		"0"
		"editable"		"0"
		"maxchars"		"-1"
		"NumericInputOnly"		"0"
		"unicode"		"0"
	}
	"ModelImage"
	{
		"ControlName"		"Panel"
		"fieldName"		"ModelImage"
		"xpos"		"277"
		"ypos"		"34"
		"wide"		"240"
		"tall"		"256"
		"autoResize"		"0"
		"pinCorner"		"0"
		"RoundedCorners"		"15"
		"pin_corner_to_sibling"		"0"
		"pin_to_sibling_corner"		"0"
		"visible"		"0"
		"enabled"		"1"
		"tabPosition"		"0"
	}
	"LogoImage"
	{
		"ControlName"		"ImagePanel"
		"fieldName"		"LogoImage"
		"xpos"		"28"
		"ypos"		"61"
		"wide"		"64"
		"tall"		"64"
		"autoResize"		"0"
		"pinCorner"		"0"
		"RoundedCorners"		"15"
		"pin_corner_to_sibling"		"0"
		"pin_to_sibling_corner"		"0"
		"visible"		"1"
		"enabled"		"1"
		"tabPosition"		"0"
		"image"		"logos/UI/Spray_canned"
		"border"		"DepressedBorder"
		"scaleImage"		"1"
		"scaleAmount"		"0.000000"
		"tileImage"		"0"
		"tileHorizontally"		"0"
		"tileVertically"		"0"
	}
	"LockRadarRotationCheckbox"
	{
		"ControlName"		"CCvarToggleCheckButton"
		"fieldName"		"LockRadarRotationCheckbox"
		"xpos"		"0"
		"ypos"		"0"
		"wide"		"64"
		"tall"		"24"
		"autoResize"		"0"
		"pinCorner"		"0"
		"RoundedCorners"		"15"
		"pin_corner_to_sibling"		"0"
		"pin_to_sibling_corner"		"0"
		"visible"		"1"
		"enabled"		"1"
		"tabPosition"		"0"
		"labelText"		"#Cstrike_RadarLocked"
		"textAlignment"		"west"
		"dulltext"		"0"
		"brighttext"		"0"
		"wrap"		"0"
		"centerwrap"		"0"
		"textinsetx"		"6"
		"textinsety"		"0"
		"auto_wide_tocontents"		"0"
		"use_proportional_insets"		"0"
		"Default"		"0"
	}
	"DownloadFilterCheck"
	{
		"ControlName"		"ComboBox"
		"fieldName"		"DownloadFilterCheck"
		"xpos"		"10"
		"ypos"		"235"
		"wide"		"250"
		"tall"		"24"
		"autoResize"		"0"
		"pinCorner"		"0"
		"RoundedCorners"		"15"
		"pin_corner_to_sibling"		"0"
		"pin_to_sibling_corner"		"0"
		"visible"		"1"
		"enabled"		"1"
		"tabPosition"		"6"
		"textHidden"		"0"
		"editable"		"0"
		"maxchars"		"-1"
		"NumericInputOnly"		"0"
		"unicode"		"0"
	}
	"CrosshairColorComboBox"
	{
		"ControlName"		"ComboBox"
		"fieldName"		"CrosshairColorComboBox"
		"xpos"		"354"
		"ypos"		"160"
		"wide"		"108"
		"tall"		"24"
		"autoResize"		"0"
		"pinCorner"		"0"
		"RoundedCorners"		"15"
		"pin_corner_to_sibling"		"0"
		"pin_to_sibling_corner"		"0"
		"visible"		"0"
		"enabled"		"1"
		"tabPosition"		"8"
		"textHidden"		"0"
		"editable"		"0"
		"maxchars"		"-1"
		"NumericInputOnly"		"0"
		"unicode"		"0"
	}
	"CrosshairTranslucencyCheckbox"
	{
		"ControlName"		"CCvarToggleCheckButton"
		"fieldName"		"CrosshairTranslucencyCheckbox"
		"xpos"		"281"
		"ypos"		"188"
		"wide"		"181"
		"tall"		"24"
		"autoResize"		"0"
		"pinCorner"		"0"
		"RoundedCorners"		"15"
		"pin_corner_to_sibling"		"0"
		"pin_to_sibling_corner"		"0"
		"visible"		"0"
		"enabled"		"1"
		"tabPosition"		"0"
		"labelText"		"#GameUI_Translucent"
		"textAlignment"		"west"
		"dulltext"		"0"
		"brighttext"		"0"
		"wrap"		"0"
		"centerwrap"		"0"
		"textinsetx"		"6"
		"textinsety"		"0"
		"auto_wide_tocontents"		"0"
		"use_proportional_insets"		"0"
		"Default"		"0"
	}
	"CrosshairImage"
	{
		"ControlName"		"ImagePanel"
		"fieldName"		"CrosshairImage"
		"xpos"		"281"
		"ypos"		"120"
		"wide"		"64"
		"tall"		"64"
		"autoResize"		"0"
		"pinCorner"		"0"
		"RoundedCorners"		"15"
		"pin_corner_to_sibling"		"0"
		"pin_to_sibling_corner"		"0"
		"visible"		"0"
		"enabled"		"1"
		"tabPosition"		"0"
		"image"		"gfx/vgui/crosshair"
		"border"		"DepressedBorder"
		"scaleImage"		"1"
		"scaleAmount"		"0.000000"
		"tileImage"		"0"
		"tileHorizontally"		"0"
		"tileVertically"		"0"
	}
	"Red Color Slider"
	{
		"ControlName"		"CCvarSlider"
		"fieldName"		"Red Color Slider"
		"xpos"		"0"
		"ypos"		"0"
		"wide"		"64"
		"tall"		"24"
		"autoResize"		"0"
		"pinCorner"		"0"
		"RoundedCorners"		"15"
		"pin_corner_to_sibling"		"0"
		"pin_to_sibling_corner"		"0"
		"visible"		"0"
		"enabled"		"1"
		"tabPosition"		"0"
		"leftText"		"0.00"
		"rightText"		"1.00"
		"minvalue"		"0.000000"
		"maxvalue"		"1.000000"
		"allowoutofrange"		"0"
	}
	"Green Color Slider"
	{
		"ControlName"		"CCvarSlider"
		"fieldName"		"Green Color Slider"
		"xpos"		"0"
		"ypos"		"0"
		"wide"		"64"
		"tall"		"24"
		"autoResize"		"0"
		"pinCorner"		"0"
		"RoundedCorners"		"15"
		"pin_corner_to_sibling"		"0"
		"pin_to_sibling_corner"		"0"
		"visible"		"0"
		"enabled"		"1"
		"tabPosition"		"0"
		"leftText"		"0.00"
		"rightText"		"1.00"
		"minvalue"		"0.000000"
		"maxvalue"		"1.000000"
		"allowoutofrange"		"0"
	}
	"Blue Color Slider"
	{
		"ControlName"		"CCvarSlider"
		"fieldName"		"Blue Color Slider"
		"xpos"		"0"
		"ypos"		"0"
		"wide"		"64"
		"tall"		"24"
		"autoResize"		"0"
		"pinCorner"		"0"
		"RoundedCorners"		"15"
		"pin_corner_to_sibling"		"0"
		"pin_to_sibling_corner"		"0"
		"visible"		"0"
		"enabled"		"1"
		"tabPosition"		"0"
		"leftText"		"0.00"
		"rightText"		"1.00"
		"minvalue"		"0.000000"
		"maxvalue"		"1.000000"
		"allowoutofrange"		"0"
	}
	"Scale Slider"
	{
		"ControlName"		"CCvarSlider"
		"fieldName"		"Scale Slider"
		"xpos"		"0"
		"ypos"		"0"
		"wide"		"64"
		"tall"		"24"
		"autoResize"		"0"
		"pinCorner"		"0"
		"RoundedCorners"		"15"
		"pin_corner_to_sibling"		"0"
		"pin_to_sibling_corner"		"0"
		"visible"		"0"
		"enabled"		"1"
		"tabPosition"		"0"
		"leftText"		"0.00"
		"rightText"		"1.00"
		"minvalue"		"0.000000"
		"maxvalue"		"1.000000"
		"allowoutofrange"		"0"
	}
	"AdvCrosshairImage"
	{
		"ControlName"		"ImagePanel"
		"fieldName"		"AdvCrosshairImage"
		"xpos"		"0"
		"ypos"		"0"
		"wide"		"64"
		"tall"		"24"
		"autoResize"		"0"
		"pinCorner"		"0"
		"RoundedCorners"		"15"
		"pin_corner_to_sibling"		"0"
		"pin_to_sibling_corner"		"0"
		"visible"		"0"
		"enabled"		"1"
		"tabPosition"		"0"
		"scaleImage"		"0"
		"scaleAmount"		"0.000000"
		"tileImage"		"0"
		"tileHorizontally"		"0"
		"tileVertically"		"0"
	}
	"CrosshairLabel"
	{
		"ControlName"		"Label"
		"fieldName"		"CrosshairLabel"
		"xpos"		"281"
		"ypos"		"94"
		"wide"		"181"
		"tall"		"24"
		"autoResize"		"0"
		"pinCorner"		"0"
		"RoundedCorners"		"15"
		"pin_corner_to_sibling"		"0"
		"pin_to_sibling_corner"		"0"
		"visible"		"0"
		"enabled"		"1"
		"tabPosition"		"0"
		"labelText"		"#GameUI_CrosshairDescription"
		"textAlignment"		"west"
		"dulltext"		"0"
		"brighttext"		"0"
		"wrap"		"0"
		"centerwrap"		"0"
		"textinsetx"		"0"
		"textinsety"		"0"
		"auto_wide_tocontents"		"0"
		"use_proportional_insets"		"0"
	}
	"SysMenu"
	{
		"ControlName"		"Menu"
		"fieldName"		"SysMenu"
		"xpos"		"0"
		"ypos"		"0"
		"zpos"		"1"
		"wide"		"64"
		"tall"		"24"
		"autoResize"		"0"
		"pinCorner"		"0"
		"RoundedCorners"		"15"
		"pin_corner_to_sibling"		"0"
		"pin_to_sibling_corner"		"0"
		"visible"		"0"
		"enabled"		"1"
		"tabPosition"		"0"
	}
	"topHorizLeft"
	{
		"ControlName"		"Label"
		"fieldName"		"topHorizLeft"
		"xpos"		"186"
		"ypos"		"120"
		"wide"		"21"
		"tall"		"16"
		"autoResize"		"0"
		"pinCorner"		"0"
		"RoundedCorners"		"15"
		"pin_corner_to_sibling"		"0"
		"pin_to_sibling_corner"		"0"
		"visible"		"0"
		"enabled"		"1"
		"tabPosition"		"0"
		"labelText"		"392"
		"textAlignment"		"west"
		"dulltext"		"0"
		"brighttext"		"0"
		"wrap"		"0"
		"centerwrap"		"0"
		"textinsetx"		"0"
		"textinsety"		"0"
		"auto_wide_tocontents"		"0"
		"use_proportional_insets"		"0"
	}
	"topVertLeft"
	{
		"ControlName"		"Label"
		"fieldName"		"topVertLeft"
		"xpos"		"374"
		"ypos"		"58"
		"wide"		"21"
		"tall"		"16"
		"autoResize"		"0"
		"pinCorner"		"0"
		"RoundedCorners"		"15"
		"pin_corner_to_sibling"		"0"
		"pin_to_sibling_corner"		"0"
		"visible"		"0"
		"enabled"		"1"
		"tabPosition"		"0"
		"labelText"		"133"
		"textAlignment"		"west"
		"dulltext"		"0"
		"brighttext"		"0"
		"wrap"		"0"
		"centerwrap"		"0"
		"textinsetx"		"0"
		"textinsety"		"0"
		"auto_wide_tocontents"		"0"
		"use_proportional_insets"		"0"
	}
	"bottomHorizRight"
	{
		"ControlName"		"Label"
		"fieldName"		"bottomHorizRight"
		"xpos"		"508"
		"ypos"		"176"
		"wide"		"21"
		"tall"		"16"
		"autoResize"		"0"
		"pinCorner"		"0"
		"RoundedCorners"		"15"
		"pin_corner_to_sibling"		"0"
		"pin_to_sibling_corner"		"0"
		"visible"		"0"
		"enabled"		"1"
		"tabPosition"		"0"
		"labelText"		"133"
		"textAlignment"		"west"
		"dulltext"		"0"
		"brighttext"		"0"
		"wrap"		"0"
		"centerwrap"		"0"
		"textinsetx"		"0"
		"textinsety"		"0"
		"auto_wide_tocontents"		"0"
		"use_proportional_insets"		"0"
	}
	"bottomVertRight"
	{
		"ControlName"		"Label"
		"fieldName"		"bottomVertRight"
		"xpos"		"496"
		"ypos"		"260"
		"wide"		"21"
		"tall"		"16"
		"autoResize"		"0"
		"pinCorner"		"0"
		"RoundedCorners"		"15"
		"pin_corner_to_sibling"		"0"
		"pin_to_sibling_corner"		"0"
		"visible"		"0"
		"enabled"		"1"
		"tabPosition"		"0"
		"labelText"		"133"
		"textAlignment"		"west"
		"dulltext"		"0"
		"brighttext"		"0"
		"wrap"		"0"
		"centerwrap"		"0"
		"textinsetx"		"0"
		"textinsety"		"0"
		"auto_wide_tocontents"		"0"
		"use_proportional_insets"		"0"
	}
	"Colors"
	{
		"ControlName"		"Label"
		"fieldName"		"Colors"
		"xpos"		"20"
		"ypos"		"164"
		"wide"		"88"
		"tall"		"24"
		"autoResize"		"0"
		"pinCorner"		"0"
		"RoundedCorners"		"15"
		"pin_corner_to_sibling"		"0"
		"pin_to_sibling_corner"		"0"
		"visible"		"0"
		"enabled"		"1"
		"tabPosition"		"0"
		"labelText"		"#GameUI_ColorSliders"
		"textAlignment"		"west"
		"dulltext"		"0"
		"brighttext"		"0"
		"wrap"		"0"
		"centerwrap"		"0"
		"textinsetx"		"0"
		"textinsety"		"0"
		"auto_wide_tocontents"		"0"
		"use_proportional_insets"		"0"
	}
	"Label1"
	{
		"ControlName"		"Label"
		"fieldName"		"Label1"
		"xpos"		"277"
		"ypos"		"243"
		"wide"		"216"
		"tall"		"24"
		"autoResize"		"0"
		"pinCorner"		"0"
		"RoundedCorners"		"15"
		"pin_corner_to_sibling"		"0"
		"pin_to_sibling_corner"		"0"
		"visible"		"0"
		"enabled"		"1"
		"tabPosition"		"0"
		"labelText"		"#GameUI_PlayerModel"
		"textAlignment"		"west"
		"dulltext"		"0"
		"brighttext"		"0"
		"wrap"		"0"
		"centerwrap"		"0"
		"textinsetx"		"0"
		"textinsety"		"0"
		"auto_wide_tocontents"		"0"
		"use_proportional_insets"		"0"
	}
	"Label2"
	{
		"ControlName"		"Label"
		"fieldName"		"Label2"
		"xpos"		"28"
		"ypos"		"34"
		"wide"		"150"
		"tall"		"24"
		"autoResize"		"0"
		"pinCorner"		"0"
		"RoundedCorners"		"15"
		"pin_corner_to_sibling"		"0"
		"pin_to_sibling_corner"		"0"
		"visible"		"1"
		"enabled"		"1"
		"tabPosition"		"0"
		"labelText"		"#GameUI_SpraypaintImage"
		"textAlignment"		"west"
		"associate"		"SpraypaintList"
		"dulltext"		"0"
		"brighttext"		"0"
		"wrap"		"0"
		"centerwrap"		"0"
		"textinsetx"		"0"
		"textinsety"		"0"
		"auto_wide_tocontents"		"0"
		"use_proportional_insets"		"0"
	}
	"Label3"
	{
		"ControlName"		"Label"
		"fieldName"		"Label3"
		"xpos"		"26"
		"ypos"		"129"
		"wide"		"196"
		"tall"		"64"
		"autoResize"		"0"
		"pinCorner"		"0"
		"RoundedCorners"		"15"
		"pin_corner_to_sibling"		"0"
		"pin_to_sibling_corner"		"0"
		"visible"		"1"
		"enabled"		"1"
		"tabPosition"		"0"
		"labelText"		"#GameUI_SpraypaintServerNote"
		"textAlignment"		"north-west"
		"dulltext"		"0"
		"brighttext"		"0"
		"Font"		"defaultSmall"
		"wrap"		"1"
		"centerwrap"		"0"
		"textinsetx"		"0"
		"textinsety"		"0"
		"auto_wide_tocontents"		"0"
		"use_proportional_insets"		"0"
	}
	"TextEntry1"
	{
		"ControlName"		"TextEntry"
		"fieldName"		"TextEntry1"
		"xpos"		"277"
		"ypos"		"33"
		"zpos"		"-1"
		"wide"		"190"
		"tall"		"203"
		"autoResize"		"0"
		"pinCorner"		"0"
		"RoundedCorners"		"15"
		"pin_corner_to_sibling"		"0"
		"pin_to_sibling_corner"		"0"
		"visible"		"1"
		"enabled"		"1"
		"tabPosition"		"0"
		"textHidden"		"0"
		"editable"		"0"
		"maxchars"		"-1"
		"NumericInputOnly"		"0"
		"unicode"		"0"
	}
	"DownloadFilterLabel"
	{
		"ControlName"		"Label"
		"fieldName"		"DownloadFilterLabel"
		"xpos"		"4"
		"ypos"		"192"
		"wide"		"275"
		"tall"		"36"
		"autoResize"		"0"
		"pinCorner"		"2"
		"RoundedCorners"		"15"
		"pin_corner_to_sibling"		"0"
		"pin_to_sibling_corner"		"0"
		"visible"		"1"
		"enabled"		"1"
		"tabPosition"		"0"
		"labelText"		"#GameUI_DownloadFilter_Title"
		"textAlignment"		"west"
		"associate"		"DownloadFilterCheck"
		"dulltext"		"0"
		"brighttext"		"0"
		"wrap"		"0"
		"centerwrap"		"0"
		"textinsetx"		"0"
		"textinsety"		"0"
		"auto_wide_tocontents"		"0"
		"use_proportional_insets"		"0"
	}
	"BuildModeDialog"
	{
		"ControlName"		"BuildModeDialog"
		"fieldName"		"BuildModeDialog"
		"xpos"		"104"
		"ypos"		"340"
		"wide"		"300"
		"tall"		"420"
		"autoResize"		"0"
		"pinCorner"		"0"
		"RoundedCorners"		"15"
		"pin_corner_to_sibling"		"0"
		"pin_to_sibling_corner"		"0"
		"visible"		"1"
		"enabled"		"1"
		"tabPosition"		"0"
		"settitlebarvisible"		"1"
		"title"		"#Frame_Untitled"
	}
}
