"VertexLitGeneric"
{
$basetexture "models\DPfilms\Beta\synth_elite\alt"
$bumpmap "models\DPfilms\Beta\synth_elite\alt_n"

$phong "1"
$phongboost "1"
$phongexponent "7"
$phongtint "[.85 .85 1]"
$phongfresnelranges "[1 1 10]"
$ambientocclusion "1"

$detail "detail\noise_detail_01"
$detailscale "7.74"
$detailblendfactor "0.4"
$detailblendmode "0"

$rimlight "1"
$rimlightexponent "1"
$rimlightboost "0.9"
}